…
    ## Parsed with column specification:
    ## cols(
    ##   vote96 = col_double(),
    ##   mhealth_sum = col_double(),
    ##   age = col_double(),
    ##   educ = col_double(),
    ##   black = col_double(),
    ##   female = col_double(),
    ##   married = col_double(),
    ##   inc10 = col_double()
    ## )

    ## # A tibble: 1,165 × 8
    ##    vote96 mhealth_sum   age  educ  black female married   inc10
    ##    <fctr>       <dbl> <dbl> <dbl> <fctr> <fctr>  <fctr>   <dbl>
    ## 1       1           0    60    12      0      0       0  4.8149
    ## 2       1           1    36    12      0      0       1  8.8273
    ## 3       0           7    21    13      0      0       0  1.7387
    ## 4       0           6    29    13      0      0       0 10.6998
    ## 5       1           1    41    15      1      1       1  8.8273
    ## 6       1           2    48    20      0      0       1  8.8273
    ## 7       0           9    20    12      0      1       0  7.2223
    ## 8       0          12    27    11      0      1       0  1.2037
    ## 9       1           2    28    16      0      0       1  7.2223
    ## 10      1           0    72    14      0      0       1  4.0124
    ## # ... with 1,155 more rows
…
``` r
mse4 = mse(oj_rf, oj_bag_test)
mse4
```

    ## [1] 0.1412956

Using a random forest method, the MSE is 0.141 and is still higher than it was in the original and pruned tree.

``` r
oj_bag_test %>%
  na.omit()
```

    ## # A tibble: 429 × 10
    ##    guilt   dem   rep   ind   age                            educ female
    ##    <dbl> <dbl> <dbl> <dbl> <dbl>                          <fctr>  <dbl>
    ## 1      1     0     1     0    29         COLLEGE GRAD AND BEYOND      1
    ## 2      1     0     1     0    43                HIGH SCHOOL GRAD      1
    ## 3      1     1     0     0    33         COLLEGE GRAD AND BEYOND      1
    ## 4      1     1     0     0    47 SOME COLLEGE(TRADE OR BUSINESS)      1
    ## 5      1     1     0     0    73 SOME COLLEGE(TRADE OR BUSINESS)      0
    ## 6      0     1     0     0    70 SOME COLLEGE(TRADE OR BUSINESS)      1
    ## 7      0     1     0     0    69          NOT A HIGH SCHOOL GRAD      1
    ## 8      1     0     1     0    33         COLLEGE GRAD AND BEYOND      0
    ## 9      1     1     0     0    34         COLLEGE GRAD AND BEYOND      0
    ## 10     0     1     0     0    31          NOT A HIGH SCHOOL GRAD      1
    ## # ... with 419 more rows, and 3 more variables: black <dbl>,
    ## #   hispanic <dbl>, income <fctr>

``` r
oj_bag_train %>%
  na.omit()
```

    ## # A tibble: 987 × 10
    ##    guilt   dem   rep   ind   age                            educ female
    ##    <dbl> <dbl> <dbl> <dbl> <dbl>                          <fctr>  <dbl>
    ## 1      1     0     1     0    29                HIGH SCHOOL GRAD      0
    ## 2      1     1     0     0    21 SOME COLLEGE(TRADE OR BUSINESS)      1
    ## 3      1     0     1     0    36 SOME COLLEGE(TRADE OR BUSINESS)      0
    ## 4      1     0     1     0    33 SOME COLLEGE(TRADE OR BUSINESS)      0
    ## 5      0     0     1     0    27                HIGH SCHOOL GRAD      1
    ## 6      0     0     0     0    58 SOME COLLEGE(TRADE OR BUSINESS)      1
    ## 7      0     1     0     0    49                HIGH SCHOOL GRAD      1
    ## 8      0     1     0     0    68          NOT A HIGH SCHOOL GRAD      1
    ## 9      0     1     0     0    49 SOME COLLEGE(TRADE OR BUSINESS)      0
    ## 10     0     0     1     0    26          NOT A HIGH SCHOOL GRAD      1
    ## # ... with 977 more rows, and 3 more variables: black <dbl>,
    ## #   hispanic <dbl>, income <fctr>
…
