…
``` r
na.omit(mh)
```

    ## # A tibble: 1,165 × 8
    ##    vote96 mhealth_sum   age  educ  black female married inc10
    ##    <fctr>       <dbl> <dbl> <dbl> <fctr> <fctr>  <fctr> <dbl>
    ## 1    vote           0    60    12      0      0       0  4.81
    ## 2    vote           1    36    12      0      0       1  8.83
    ## 3   xvote           7    21    13      0      0       0  1.74
    ## 4   xvote           6    29    13      0      0       0 10.70
    ## 5    vote           1    41    15      1      1       1  8.83
    ## 6    vote           2    48    20      0      0       1  8.83
    ## 7   xvote           9    20    12      0      1       0  7.22
    ## 8   xvote          12    27    11      0      1       0  1.20
    ## 9    vote           2    28    16      0      0       1  7.22
    ## 10   vote           0    72    14      0      0       1  4.01
    ## # ... with 1,155 more rows
…
