…
    ## Parsed with column specification:
    ## cols(
    ##   vote96 = col_double(),
    ##   mhealth_sum = col_double(),
    ##   age = col_double(),
    ##   educ = col_double(),
    ##   black = col_double(),
    ##   female = col_double(),
    ##   married = col_double(),
    ##   inc10 = col_double()
    ## )

    ## # A tibble: 1,165 × 8
    ##    vote96 mhealth_sum   age  educ  black female married   inc10
    ##    <fctr>       <dbl> <dbl> <dbl> <fctr> <fctr>  <fctr>   <dbl>
    ## 1       1           0    60    12      0      0       0  4.8149
    ## 2       1           1    36    12      0      0       1  8.8273
    ## 3       0           7    21    13      0      0       0  1.7387
    ## 4       0           6    29    13      0      0       0 10.6998
    ## 5       1           1    41    15      1      1       1  8.8273
    ## 6       1           2    48    20      0      0       1  8.8273
    ## 7       0           9    20    12      0      1       0  7.2223
    ## 8       0          12    27    11      0      1       0  1.2037
    ## 9       1           2    28    16      0      0       1  7.2223
    ## 10      1           0    72    14      0      0       1  4.0124
    ## # ... with 1,155 more rows
…
