…
    ## $title
    ## [1] "Complete linkage"
    ## 
    ## attr(,"class")
    ## [1] "labels"

How the states belonging to each clusters are showed below:

    ## # A tibble: 50 × 2
    ##         State Cluster
    ##         <chr>   <int>
    ## 1     Alabama       1
    ## 2      Alaska       1
    ## 3     Arizona       1
    ## 4  California       1
    ## 5    Delaware       1
    ## 6     Florida       1
    ## 7    Illinois       1
    ## 8   Louisiana       1
    ## 9    Maryland       1
    ## 10   Michigan       1
    ## # ... with 40 more rows
…
