…
This looks like the line from before, but without the confidence interval. This is a bit more involved of a process, but it can work with any type of model you create - not just very basic, linear models.

Generating residuals
====================

We can also calculate the **residuals**, or the distance between the actual and predicted values of *Y*, using `add_residuals()`:

``` r
sim1 <- sim1 %>% 
  add_residuals(sim1_mod)
sim1
```

    ## # A tibble: 30 × 3
    ##        x         y        resid
    ##    <int>     <dbl>        <dbl>
    ## 1      1  4.199913 -2.072442018
    ## 2      1  7.510634  1.238279125
    ## 3      1  2.125473 -4.146882207
    ## 4      2  8.988857  0.664969362
    ## 5      2 10.243105  1.919217378
    ## 6      2 11.296823  2.972935148
    ## 7      3  7.356365 -3.019056466
    ## 8      3 10.505349  0.129928252
    ## 9      3 10.511601  0.136179642
    ## 10     4 12.434589  0.007634878
    ## # ... with 20 more rows
…
``` r
grid <- credit %>% 
  data_grid(limit) 
grid
```

    ## # A tibble: 387 × 1
    ##    limit
    ##    <int>
    ## 1    855
    ## 2    886
    ## 3    905
    ## 4    906
    ## 5   1134
    ## 6   1160
    ## 7   1233
    ## 8   1300
    ## 9   1311
    ## 10  1335
    ## # ... with 377 more rows

``` r
grid <- grid %>% 
  add_predictions(credit_limit) 
grid
```

    ## # A tibble: 387 × 2
    ##    limit       pred
    ##    <int>      <dbl>
    ## 1    855 -146.04062
    ## 2    886 -140.71987
    ## 3    905 -137.45876
    ## 4    906 -137.28712
    ## 5   1134  -98.15382
    ## 6   1160  -93.69125
    ## 7   1233  -81.16173
    ## 8   1300  -69.66203
    ## 9   1311  -67.77402
    ## 10  1335  -63.65473
    ## # ... with 377 more rows
…
Notice that the structure of the resulting object is a tidy data frame. Every row contains a single parameter, every column contains a single statistic, and every cell contains exactly one value.

### `augment()`

`augment()` adds columns to the original data that was modeled. This could include predictions, residuals, and other observation-level statistics.

``` r
augment(credit_limit) %>%
  tbl_df()
```

    ## # A tibble: 400 × 9
    ##    balance limit   .fitted  .se.fit      .resid        .hat   .sigma
    ##      <int> <int>     <dbl>    <dbl>       <dbl>       <dbl>    <dbl>
    ## 1      333  3606  326.1335 13.00598    6.866470 0.003100247 233.8787
    ## 2      903  6645  847.7392 15.16512   55.260781 0.004215041 233.8625
    ## 3      580  7075  921.5432 16.63952 -341.543249 0.005074481 233.2468
    ## 4      964  9504 1338.4502 26.83292 -374.450198 0.013196114 233.1126
    ## 5      331  4897  547.7173 11.70784 -216.717257 0.002512254 233.6253
    ## 6     1151  8047 1088.3747 20.44138   62.625316 0.007658269 233.8577
    ## 7      203  3388  288.7166 13.52835  -85.716604 0.003354285 233.8393
    ## 8      872  7114  928.2371 16.78083  -56.237103 0.005161034 233.8619
    ## 9      279  3300  273.6125 13.75873    5.387477 0.003469499 233.8788
    ## 10    1350  6819  877.6041 15.74207  472.395894 0.004541860 232.6687
    ## # ... with 390 more rows, and 2 more variables: .cooksd <dbl>,
    ## #   .std.resid <dbl>
…
Now that we have two predictor variables in our model, remember how to accurately interpret these results. *β*<sub>*j*</sub> is interpreted as the **average** effect of *Y* of a one unit increase in *X*<sub>*j*</sub>, **holding all other predictors constant**. So the parameter for credit limit tells us the estimated effect on credit card balance of a $1 increase in the individual's credit limit, after controlling for the effects of income.

Qualitative predictors
----------------------

Predictor variables are frequently **quantitative**, but this is not a guarantee. In many datasets you will have **qualitiative** predictors, or variables that have discrete values. In the `credit` dataset, we have four such columns:

``` r
select(credit, gender, student, married, ethnicity)
```

    ## # A tibble: 400 × 4
    ##    gender student married        ethnicity
    ##     <chr>   <chr>   <chr>            <chr>
    ## 1    Male      No     Yes        Caucasian
    ## 2  Female     Yes     Yes            Asian
    ## 3    Male      No      No            Asian
    ## 4  Female      No      No            Asian
    ## 5    Male      No     Yes        Caucasian
    ## 6    Male      No      No        Caucasian
    ## 7  Female      No      No African American
    ## 8    Male      No      No            Asian
    ## 9  Female      No      No        Caucasian
    ## 10 Female     Yes     Yes African American
    ## # ... with 390 more rows
…
    ##          term  estimate std.error  statistic      p.value
    ## 1 (Intercept) 509.80311  33.12808 15.3888531 2.908941e-42
    ## 2      female  19.73312  46.05121  0.4285039 6.685161e-01

Frequently your data will originally be coded using this 0/1 scheme. If you don't like this, you can always convert it back using the `factor()` approach outlined above:

``` r
credit %>%
  select(gender) %>%
  mutate(gender_f = factor(gender, levels = c("Male", "Female")),
         female = ifelse(gender == "Female", 1, 0),
         female_f = factor(female, levels = 0:1, labels = c("Male", "Female")))
```

    ## # A tibble: 400 × 4
    ##    gender gender_f female female_f
    ##     <chr>   <fctr>  <dbl>   <fctr>
    ## 1    Male     Male      0     Male
    ## 2  Female   Female      1   Female
    ## 3    Male     Male      0     Male
    ## 4  Female   Female      1   Female
    ## 5    Male     Male      0     Male
    ## 6    Male     Male      0     Male
    ## 7  Female   Female      1   Female
    ## 8    Male     Male      0     Male
    ## 9  Female   Female      1   Female
    ## 10 Female   Female      1   Female
    ## # ... with 390 more rows
…
