…
Our goal is to improve sales of the Shamwow. Since we cannot directly increase sales of the product (unless we go out and buy it ourselves), our only option is to increase advertising across three potential mediums: newspaper, radio, and TV.

In this example, the advertising budgets are our **input variables**, also called **independent variables**, **features**, or **predictors**. The sales of Shamwows is the **output**, also called the **dependent variable** or **response**.

By plotting the variables against one another using a scatterplot, we can see there is some sort of relationship between each medium's advertising spending and Shamwow sales:

``` r
# get advertising data
(advertising <- read_csv("http://cfss.uchicago.edu/data/Advertising.csv") %>%
  tbl_df() %>%
  # remove id column
  select(-X1))
```

    ## # A tibble: 200 × 4
    ##       TV Radio Newspaper Sales
    ##    <dbl> <dbl>     <dbl> <dbl>
    ## 1  230.1  37.8      69.2  22.1
    ## 2   44.5  39.3      45.1  10.4
    ## 3   17.2  45.9      69.3   9.3
    ## 4  151.5  41.3      58.5  18.5
    ## 5  180.8  10.8      58.4  12.9
    ## 6    8.7  48.9      75.0   7.2
    ## 7   57.5  32.8      23.5  11.8
    ## 8  120.2  19.6      11.6  13.2
    ## 9    8.6   2.1       1.0   4.8
    ## 10 199.8   2.6      21.2  10.6
    ## # ... with 190 more rows
…
