…
``` r
mse4 = mse(oj_rf, oj_bag_test)
```

Using a random forest, the MSE, at 0.141 is still higher than it was in the original and pruned tree. However, the percent variance explained ha increased to 28.4%.

``` r
oj_bag_test %>%
  na.omit()
```

    ## # A tibble: 429 × 10
    ##    guilt   dem   rep   ind   age                            educ female
    ##    <dbl> <dbl> <dbl> <dbl> <dbl>                          <fctr>  <dbl>
    ## 1      1     0     1     0    29         COLLEGE GRAD AND BEYOND      1
    ## 2      1     0     1     0    43                HIGH SCHOOL GRAD      1
    ## 3      1     1     0     0    33         COLLEGE GRAD AND BEYOND      1
    ## 4      1     1     0     0    47 SOME COLLEGE(TRADE OR BUSINESS)      1
    ## 5      1     1     0     0    73 SOME COLLEGE(TRADE OR BUSINESS)      0
    ## 6      0     1     0     0    70 SOME COLLEGE(TRADE OR BUSINESS)      1
    ## 7      0     1     0     0    69          NOT A HIGH SCHOOL GRAD      1
    ## 8      1     0     1     0    33         COLLEGE GRAD AND BEYOND      0
    ## 9      1     1     0     0    34         COLLEGE GRAD AND BEYOND      0
    ## 10     0     1     0     0    31          NOT A HIGH SCHOOL GRAD      1
    ## # ... with 419 more rows, and 3 more variables: black <dbl>,
    ## #   hispanic <dbl>, income <fctr>

``` r
oj_bag_train %>%
  na.omit()
```

    ## # A tibble: 987 × 10
    ##    guilt   dem   rep   ind   age                            educ female
    ##    <dbl> <dbl> <dbl> <dbl> <dbl>                          <fctr>  <dbl>
    ## 1      1     0     1     0    29                HIGH SCHOOL GRAD      0
    ## 2      1     1     0     0    21 SOME COLLEGE(TRADE OR BUSINESS)      1
    ## 3      1     0     1     0    36 SOME COLLEGE(TRADE OR BUSINESS)      0
    ## 4      1     0     1     0    33 SOME COLLEGE(TRADE OR BUSINESS)      0
    ## 5      0     0     1     0    27                HIGH SCHOOL GRAD      1
    ## 6      0     0     0     0    58 SOME COLLEGE(TRADE OR BUSINESS)      1
    ## 7      0     1     0     0    49                HIGH SCHOOL GRAD      1
    ## 8      0     1     0     0    68          NOT A HIGH SCHOOL GRAD      1
    ## 9      0     1     0     0    49 SOME COLLEGE(TRADE OR BUSINESS)      0
    ## 10     0     0     1     0    26          NOT A HIGH SCHOOL GRAD      1
    ## # ... with 977 more rows, and 3 more variables: black <dbl>,
    ## #   hispanic <dbl>, income <fctr>
…
